^D:\WORK\UNIVERSITY\STAGE 3\PATH-FINDING\CSC3222 COURSEWORK 2\CSC3222 COURSEWORK 2\DEBUG\MAIN.OBJ|D:\WORK\UNIVERSITY\STAGE 3\PATH-FINDING\CSC3222 COURSEWORK 2\CSC3222 COURSEWORK 2\DEBUG\PATHFINDING.OBJ
C:\WINDOWS\SYSTEM32\C_1252.NLS
C:\WINDOWS\GLOBALIZATION\SORTING\SORTDEFAULT.NLS
D:\WORK\UNIVERSITY\STAGE 3\PATH-FINDING\CSC3222 COURSEWORK 2\PACKAGES\NUPENGL.CORE.0.1.0.1\BUILD\NATIVE\LIB\WIN32\GLEW32.LIB
D:\WORK\UNIVERSITY\STAGE 3\PATH-FINDING\CSC3222 COURSEWORK 2\PACKAGES\NUPENGL.CORE.0.1.0.1\BUILD\NATIVE\LIB\WIN32\GLFW3DLL.LIB
D:\WORK\UNIVERSITY\STAGE 3\PATH-FINDING\CSC3222 COURSEWORK 2\PACKAGES\NUPENGL.CORE.0.1.0.1\BUILD\NATIVE\LIB\WIN32\FREEGLUT.LIB
D:\WORK\UNIVERSITY\STAGE 3\PATH-FINDING\CSC3222 COURSEWORK 2\SFGUI\LIB\SFGUI-S-D.LIB
C:\PROGRAM FILES (X86)\WINDOWS KITS\8.1\LIB\WINV6.3\UM\X86\GLU32.LIB
C:\PROGRAM FILES (X86)\WINDOWS KITS\8.1\LIB\WINV6.3\UM\X86\OPENGL32.LIB
C:\PROGRAM FILES (X86)\WINDOWS KITS\8.1\LIB\WINV6.3\UM\X86\WINMM.LIB
D:\WORK\UNIVERSITY\STAGE 3\PATH-FINDING\CSC3222 COURSEWORK 2\SFML-2.3.2\LIB\FREETYPE.LIB
D:\WORK\UNIVERSITY\STAGE 3\PATH-FINDING\CSC3222 COURSEWORK 2\SFML-2.3.2\LIB\JPEG.LIB
D:\WORK\UNIVERSITY\STAGE 3\PATH-FINDING\CSC3222 COURSEWORK 2\SFML-2.3.2\LIB\SFML-GRAPHICS-S-D.LIB
D:\WORK\UNIVERSITY\STAGE 3\PATH-FINDING\CSC3222 COURSEWORK 2\SFML-2.3.2\LIB\SFML-WINDOW-S-D.LIB
D:\WORK\UNIVERSITY\STAGE 3\PATH-FINDING\CSC3222 COURSEWORK 2\SFML-2.3.2\LIB\SFML-SYSTEM-S-D.LIB
C:\PROGRAM FILES (X86)\WINDOWS KITS\8.1\LIB\WINV6.3\UM\X86\KERNEL32.LIB
C:\PROGRAM FILES (X86)\WINDOWS KITS\8.1\LIB\WINV6.3\UM\X86\USER32.LIB
C:\PROGRAM FILES (X86)\WINDOWS KITS\8.1\LIB\WINV6.3\UM\X86\GDI32.LIB
C:\PROGRAM FILES (X86)\WINDOWS KITS\8.1\LIB\WINV6.3\UM\X86\WINSPOOL.LIB
C:\PROGRAM FILES (X86)\WINDOWS KITS\8.1\LIB\WINV6.3\UM\X86\COMDLG32.LIB
C:\PROGRAM FILES (X86)\WINDOWS KITS\8.1\LIB\WINV6.3\UM\X86\ADVAPI32.LIB
C:\PROGRAM FILES (X86)\WINDOWS KITS\8.1\LIB\WINV6.3\UM\X86\SHELL32.LIB
C:\PROGRAM FILES (X86)\WINDOWS KITS\8.1\LIB\WINV6.3\UM\X86\OLE32.LIB
C:\PROGRAM FILES (X86)\WINDOWS KITS\8.1\LIB\WINV6.3\UM\X86\OLEAUT32.LIB
C:\PROGRAM FILES (X86)\WINDOWS KITS\8.1\LIB\WINV6.3\UM\X86\UUID.LIB
C:\PROGRAM FILES (X86)\WINDOWS KITS\8.1\LIB\WINV6.3\UM\X86\ODBC32.LIB
C:\PROGRAM FILES (X86)\WINDOWS KITS\8.1\LIB\WINV6.3\UM\X86\ODBCCP32.LIB
D:\WORK\UNIVERSITY\STAGE 3\PATH-FINDING\CSC3222 COURSEWORK 2\CSC3222 COURSEWORK 2\DEBUG\MAIN.OBJ
D:\WORK\UNIVERSITY\STAGE 3\PATH-FINDING\CSC3222 COURSEWORK 2\CSC3222 COURSEWORK 2\DEBUG\PATHFINDING.OBJ
C:\WINDOWS\SYSTEM32\TZRES.DLL
C:\PROGRAM FILES (X86)\MICROSOFT VISUAL STUDIO 12.0\VC\LIB\MSVCPRTD.LIB
C:\PROGRAM FILES (X86)\MICROSOFT VISUAL STUDIO 12.0\VC\LIB\MSVCRTD.LIB
C:\PROGRAM FILES (X86)\MICROSOFT VISUAL STUDIO 12.0\VC\LIB\OLDNAMES.LIB
