^C:\USERS\CAPTAIN TISSUE\DOCUMENTS\VISUAL STUDIO 2013\PROJECTS\CSC3222 COURSEWORK 2\CSC3222 COURSEWORK 2\RELEASE\MAIN.OBJ
/OUT:"C:\USERS\CAPTAIN TISSUE\DOCUMENTS\VISUAL STUDIO 2013\PROJECTS\CSC3222 COURSEWORK 2\RELEASE\CSC3222 COURSEWORK 2.EXE" /NOLOGO /LIBPATH:"C:\Users\Captain Tissue\Documents\Visual Studio 2013\Projects\CSC3222 Coursework 2\\SFGUI\lib" /LIBPATH:"C:\Users\Captain Tissue\Documents\Visual Studio 2013\Projects\CSC3222 Coursework 2\\SFML-2.3.2\lib" "C:\Users\Captain Tissue\Documents\Visual Studio 2013\Projects\CSC3222 Coursework 2\packages\nupengl.core.0.1.0.1\build\native\../..//build/native/lib/Win32\glew32.lib" "C:\Users\Captain Tissue\Documents\Visual Studio 2013\Projects\CSC3222 Coursework 2\packages\nupengl.core.0.1.0.1\build\native\../..//build/native/lib/Win32\glfw3dll.lib" "C:\Users\Captain Tissue\Documents\Visual Studio 2013\Projects\CSC3222 Coursework 2\packages\nupengl.core.0.1.0.1\build\native\../..//build/native/lib/Win32\freeglut.lib" glu32.lib "sfgui-s.lib" opengl32.lib winmm.lib freetype.lib jpeg.lib "sfml-graphics-s.lib" "sfml-window-s.lib" "sfml-system-s.lib" kernel32.lib user32.lib gdi32.lib winspool.lib comdlg32.lib advapi32.lib shell32.lib ole32.lib oleaut32.lib uuid.lib odbc32.lib odbccp32.lib /MANIFEST /MANIFESTUAC:"level='asInvoker' uiAccess='false'" /manifest:embed /DEBUG /PDB:"C:\USERS\CAPTAIN TISSUE\DOCUMENTS\VISUAL STUDIO 2013\PROJECTS\CSC3222 COURSEWORK 2\RELEASE\CSC3222 COURSEWORK 2.PDB" /OPT:REF /OPT:ICF /LTCG /TLBID:1 /DYNAMICBASE /NXCOMPAT /IMPLIB:"C:\USERS\CAPTAIN TISSUE\DOCUMENTS\VISUAL STUDIO 2013\PROJECTS\CSC3222 COURSEWORK 2\RELEASE\CSC3222 COURSEWORK 2.LIB" /MACHINE:X86 /SAFESEH RELEASE\MAIN.OBJ
^D:\WORK\UNIVERSITY\STAGE 3\PATH-FINDING\CSC3222 COURSEWORK 2\CSC3222 COURSEWORK 2\RELEASE\MAIN.OBJ|D:\WORK\UNIVERSITY\STAGE 3\PATH-FINDING\CSC3222 COURSEWORK 2\CSC3222 COURSEWORK 2\RELEASE\PATHFINDING.OBJ
/OUT:"D:\WORK\UNIVERSITY\STAGE 3\PATH-FINDING\CSC3222 COURSEWORK 2\RELEASE\CSC3222 COURSEWORK 2.EXE" /NOLOGO /LIBPATH:"D:\Work\University\Stage 3\Path-Finding\CSC3222 Coursework 2\\SFGUI\lib" /LIBPATH:"D:\Work\University\Stage 3\Path-Finding\CSC3222 Coursework 2\\SFML-2.3.2\lib" "D:\Work\University\Stage 3\Path-Finding\CSC3222 Coursework 2\packages\nupengl.core.0.1.0.1\build\native\../..//build/native/lib/Win32\glew32.lib" "D:\Work\University\Stage 3\Path-Finding\CSC3222 Coursework 2\packages\nupengl.core.0.1.0.1\build\native\../..//build/native/lib/Win32\glfw3dll.lib" "D:\Work\University\Stage 3\Path-Finding\CSC3222 Coursework 2\packages\nupengl.core.0.1.0.1\build\native\../..//build/native/lib/Win32\freeglut.lib" glu32.lib "sfgui-s.lib" opengl32.lib winmm.lib freetype.lib jpeg.lib "sfml-graphics-s.lib" "sfml-window-s.lib" "sfml-system-s.lib" kernel32.lib user32.lib gdi32.lib winspool.lib comdlg32.lib advapi32.lib shell32.lib ole32.lib oleaut32.lib uuid.lib odbc32.lib odbccp32.lib /MANIFEST /MANIFESTUAC:"level='asInvoker' uiAccess='false'" /manifest:embed /DEBUG /PDB:"D:\WORK\UNIVERSITY\STAGE 3\PATH-FINDING\CSC3222 COURSEWORK 2\RELEASE\CSC3222 COURSEWORK 2.PDB" /OPT:REF /OPT:ICF /LTCG /TLBID:1 /DYNAMICBASE /NXCOMPAT /IMPLIB:"D:\WORK\UNIVERSITY\STAGE 3\PATH-FINDING\CSC3222 COURSEWORK 2\RELEASE\CSC3222 COURSEWORK 2.LIB" /MACHINE:X86 /SAFESEH RELEASE\MAIN.OBJRELEASE\PATHFINDING.OBJ
^C:\USERS\CAPTAIN TISSUE\DOWNLOADS\CSC3222_COURSEWORK_2\CSC3222 COURSEWORK 2\CSC3222 COURSEWORK 2\RELEASE\MAIN.OBJ|C:\USERS\CAPTAIN TISSUE\DOWNLOADS\CSC3222_COURSEWORK_2\CSC3222 COURSEWORK 2\CSC3222 COURSEWORK 2\RELEASE\PATHFINDING.OBJ
/OUT:"C:\USERS\CAPTAIN TISSUE\DOWNLOADS\CSC3222_COURSEWORK_2\CSC3222 COURSEWORK 2\RELEASE\CSC3222 COURSEWORK 2.EXE" /NOLOGO /LIBPATH:"C:\Users\Captain Tissue\Downloads\CSC3222_Coursework_2\CSC3222 Coursework 2\\SFGUI\lib" /LIBPATH:"C:\Users\Captain Tissue\Downloads\CSC3222_Coursework_2\CSC3222 Coursework 2\\SFML-2.3.2\lib" "C:\Users\Captain Tissue\Downloads\CSC3222_Coursework_2\CSC3222 Coursework 2\packages\nupengl.core.0.1.0.1\build\native\../..//build/native/lib/Win32\glew32.lib" "C:\Users\Captain Tissue\Downloads\CSC3222_Coursework_2\CSC3222 Coursework 2\packages\nupengl.core.0.1.0.1\build\native\../..//build/native/lib/Win32\glfw3dll.lib" "C:\Users\Captain Tissue\Downloads\CSC3222_Coursework_2\CSC3222 Coursework 2\packages\nupengl.core.0.1.0.1\build\native\../..//build/native/lib/Win32\freeglut.lib" glu32.lib "sfgui-s.lib" opengl32.lib winmm.lib freetype.lib jpeg.lib "sfml-graphics-s.lib" "sfml-window-s.lib" "sfml-system-s.lib" kernel32.lib user32.lib gdi32.lib winspool.lib comdlg32.lib advapi32.lib shell32.lib ole32.lib oleaut32.lib uuid.lib odbc32.lib odbccp32.lib /MANIFEST /MANIFESTUAC:"level='asInvoker' uiAccess='false'" /manifest:embed /DEBUG /PDB:"C:\USERS\CAPTAIN TISSUE\DOWNLOADS\CSC3222_COURSEWORK_2\CSC3222 COURSEWORK 2\RELEASE\CSC3222 COURSEWORK 2.PDB" /OPT:REF /OPT:ICF /LTCG /TLBID:1 /DYNAMICBASE /NXCOMPAT /IMPLIB:"C:\USERS\CAPTAIN TISSUE\DOWNLOADS\CSC3222_COURSEWORK_2\CSC3222 COURSEWORK 2\RELEASE\CSC3222 COURSEWORK 2.LIB" /MACHINE:X86 /SAFESEH RELEASE\MAIN.OBJRELEASE\PATHFINDING.OBJ
