^C:\USERS\CAPTAIN TISSUE\DOWNLOADS\CSC3222_COURSEWORK_2\CSC3222 COURSEWORK 2\CSC3222 COURSEWORK 2\RELEASE\MAIN.OBJ|C:\USERS\CAPTAIN TISSUE\DOWNLOADS\CSC3222_COURSEWORK_2\CSC3222 COURSEWORK 2\CSC3222 COURSEWORK 2\RELEASE\PATHFINDING.OBJ
C:\USERS\CAPTAIN TISSUE\DOWNLOADS\CSC3222_COURSEWORK_2\CSC3222 COURSEWORK 2\PACKAGES\NUPENGL.CORE.0.1.0.1\BUILD\NATIVE\LIB\WIN32\GLEW32.LIB
C:\USERS\CAPTAIN TISSUE\DOWNLOADS\CSC3222_COURSEWORK_2\CSC3222 COURSEWORK 2\PACKAGES\NUPENGL.CORE.0.1.0.1\BUILD\NATIVE\LIB\WIN32\GLFW3DLL.LIB
C:\USERS\CAPTAIN TISSUE\DOWNLOADS\CSC3222_COURSEWORK_2\CSC3222 COURSEWORK 2\PACKAGES\NUPENGL.CORE.0.1.0.1\BUILD\NATIVE\LIB\WIN32\FREEGLUT.LIB
C:\PROGRAM FILES (X86)\WINDOWS KITS\8.1\LIB\WINV6.3\UM\X86\GLU32.LIB
C:\USERS\CAPTAIN TISSUE\DOWNLOADS\CSC3222_COURSEWORK_2\CSC3222 COURSEWORK 2\SFGUI\LIB\SFGUI-S.LIB
C:\PROGRAM FILES (X86)\WINDOWS KITS\8.1\LIB\WINV6.3\UM\X86\OPENGL32.LIB
C:\PROGRAM FILES (X86)\WINDOWS KITS\8.1\LIB\WINV6.3\UM\X86\WINMM.LIB
C:\USERS\CAPTAIN TISSUE\DOWNLOADS\CSC3222_COURSEWORK_2\CSC3222 COURSEWORK 2\SFML-2.3.2\LIB\FREETYPE.LIB
C:\USERS\CAPTAIN TISSUE\DOWNLOADS\CSC3222_COURSEWORK_2\CSC3222 COURSEWORK 2\SFML-2.3.2\LIB\JPEG.LIB
C:\USERS\CAPTAIN TISSUE\DOWNLOADS\CSC3222_COURSEWORK_2\CSC3222 COURSEWORK 2\SFML-2.3.2\LIB\SFML-GRAPHICS-S.LIB
C:\USERS\CAPTAIN TISSUE\DOWNLOADS\CSC3222_COURSEWORK_2\CSC3222 COURSEWORK 2\SFML-2.3.2\LIB\SFML-WINDOW-S.LIB
C:\USERS\CAPTAIN TISSUE\DOWNLOADS\CSC3222_COURSEWORK_2\CSC3222 COURSEWORK 2\SFML-2.3.2\LIB\SFML-SYSTEM-S.LIB
C:\PROGRAM FILES (X86)\WINDOWS KITS\8.1\LIB\WINV6.3\UM\X86\KERNEL32.LIB
C:\PROGRAM FILES (X86)\WINDOWS KITS\8.1\LIB\WINV6.3\UM\X86\USER32.LIB
C:\PROGRAM FILES (X86)\WINDOWS KITS\8.1\LIB\WINV6.3\UM\X86\GDI32.LIB
C:\PROGRAM FILES (X86)\WINDOWS KITS\8.1\LIB\WINV6.3\UM\X86\WINSPOOL.LIB
C:\PROGRAM FILES (X86)\WINDOWS KITS\8.1\LIB\WINV6.3\UM\X86\COMDLG32.LIB
C:\PROGRAM FILES (X86)\WINDOWS KITS\8.1\LIB\WINV6.3\UM\X86\ADVAPI32.LIB
C:\PROGRAM FILES (X86)\WINDOWS KITS\8.1\LIB\WINV6.3\UM\X86\SHELL32.LIB
C:\PROGRAM FILES (X86)\WINDOWS KITS\8.1\LIB\WINV6.3\UM\X86\OLE32.LIB
C:\PROGRAM FILES (X86)\WINDOWS KITS\8.1\LIB\WINV6.3\UM\X86\OLEAUT32.LIB
C:\PROGRAM FILES (X86)\WINDOWS KITS\8.1\LIB\WINV6.3\UM\X86\UUID.LIB
C:\PROGRAM FILES (X86)\WINDOWS KITS\8.1\LIB\WINV6.3\UM\X86\ODBC32.LIB
C:\PROGRAM FILES (X86)\WINDOWS KITS\8.1\LIB\WINV6.3\UM\X86\ODBCCP32.LIB
C:\USERS\CAPTAIN TISSUE\DOWNLOADS\CSC3222_COURSEWORK_2\CSC3222 COURSEWORK 2\CSC3222 COURSEWORK 2\RELEASE\MAIN.OBJ
C:\USERS\CAPTAIN TISSUE\DOWNLOADS\CSC3222_COURSEWORK_2\CSC3222 COURSEWORK 2\CSC3222 COURSEWORK 2\RELEASE\PATHFINDING.OBJ
C:\WINDOWS\GLOBALIZATION\SORTING\SORTDEFAULT.NLS
D:\APPS\MICROSOFT VISUAL STUDIO 12.0\VC\BIN\C2.DLL
D:\APPS\MICROSOFT VISUAL STUDIO 12.0\VC\LIB\MSVCPRT.LIB
D:\APPS\MICROSOFT VISUAL STUDIO 12.0\VC\LIB\MSVCRT.LIB
D:\APPS\MICROSOFT VISUAL STUDIO 12.0\VC\LIB\OLDNAMES.LIB
D:\APPS\MICROSOFT VISUAL STUDIO 12.0\VC\BIN\1033\LINKUI.DLL
C:\PROGRAM FILES (X86)\WINDOWS KITS\8.1\BIN\X86\RC.EXE
D:\APPS\MICROSOFT VISUAL STUDIO 12.0\VC\BIN\CVTRES.EXE
C:\WINDOWS\SYSTEM32\TZRES.DLL
